┌─────────────────┬─────────────────────────┐
│       anc       │           des           │
│     varchar     │         varchar         │
├─────────────────┼─────────────────────────┤
│ Fred Astaire    │ Bill Giorgio            │
│ Fred Astaire    │ Jerry Murad             │
│ Fred Astaire    │ Richard Eastham         │
│ Fred Astaire    │ Robert B. Sinclair      │
│ Fred Astaire    │ Gene Rayburn            │
│ Fred Astaire    │ Richard Harkness        │
│ Fred Astaire    │ Tommy Steele            │
│ Fred Astaire    │ William Beaudine        │
│ Fred Astaire    │ Anne Genevaux           │
│ Fred Astaire    │ Betsy Blair             │
│ Fred Astaire    │ Ferdinand Munier        │
│ Fred Astaire    │ Richard Angarola        │
│ Fred Astaire    │ Cecilia Todeschini      │
│ Fred Astaire    │ Julie Wilson            │
│ Fred Astaire    │ Don Costa               │
│ Fred Astaire    │ Betty Furness           │
│ Fred Astaire    │ Roman Bohnen            │
│ Fred Astaire    │ Robert Taylor           │
│ Fred Astaire    │ Wolf Mankowitz          │
│ Fred Astaire    │ Oliver McGowan          │
│      ·          │       ·                 │
│      ·          │       ·                 │
│      ·          │       ·                 │
│ David Baddiel   │ Rickie Haywood-Williams │
│ Cary Grant      │ Christopher Guyon       │
│ Brigitte Bardot │ Jean-Philippe Audin     │
│ Elvis Presley   │ Jeff Freeman            │
│ Dwight Hemion   │ James Galway            │
│ Barbara Bush    │ Vic Damone              │
│ Regis Philbin   │ Joyce Brothers          │
│ Jeff Sotzing    │ 'Weird Al' Yankovic     │
│ Novak Djokovic  │ Emily Morgan            │
│ Larry Blyden    │ Carl Reiner             │
│ John Harlan     │ John Erman              │
│ George W. Bush  │ John Milton Cooper      │
│ Joan Collins    │ John S. Abbott Jr.      │
│ Joel Gallen     │ Louis Del Grande        │
│ Jack Warden     │ Gladys Thornton         │
│ Gavin MacLeod   │ Ken Welch               │
│ Blanche Baker   │ Gabriella Malm          │
│ Blanche Baker   │ Helora Danna            │
│ Roy Rogers      │ Charles L. Barbee       │
│ Grant Denyer    │ Andrew Flemming         │
├─────────────────┴─────────────────────────┤
│ 2888686 rows (40 shown)         2 columns │
└───────────────────────────────────────────┘
